0, 0, 1325
0, 1, 1309
0, 2, 1365
0, 3, 1333
0, 4, 1346
0, 5, 1341
0, 6, 1369
0, 7, 1365
0, 8, 1292
0, 9, 1303
0, 10, 1330
0, 11, 1308
0, 12, 1297
0, 13, 1348
0, 14, 1355
0, 15, 1347
0, 16, 1347
0, 17, 1358
1, 0, 1320
1, 1, 1365
1, 2, 1330
1, 3, 1333
1, 4, 1359
1, 5, 1350
1, 6, 1332
1, 7, 1355
1, 8, 1365
1, 9, 1335
1, 10, 1378
1, 11, 1326
1, 12, 1350
1, 13, 1341
1, 14, 1321
1, 15, 1327
1, 16, 1332
1, 17, 1357
2, 0, 1307
2, 1, 1337
2, 2, 1340
2, 3, 1341
2, 4, 1375
2, 5, 1311
2, 6, 1331
2, 7, 1370
2, 8, 1347
2, 9, 1308
2, 10, 1356
2, 11, 1347
2, 12, 1345
2, 13, 1330
2, 14, 1342
2, 15, 1349
2, 16, 1352
2, 17, 1374
3, 0, 1354
3, 1, 1324
3, 2, 1384
3, 3, 1371
3, 4, 1318
3, 5, 1324
3, 6, 1314
3, 7, 1303
3, 8, 1332
3, 9, 1352
3, 10, 1332
3, 11, 1347
3, 12, 1345
3, 13, 1332
3, 14, 1333
3, 15, 1326
3, 16, 1355
3, 17, 1355
4, 0, 1309
4, 1, 1356
4, 2, 1359
4, 3, 1370
4, 4, 1315
4, 5, 1340
4, 6, 1376
4, 7, 1355
4, 8, 1361
4, 9, 1343
4, 10, 1327
4, 11, 1370
4, 12, 1327
4, 13, 1315
4, 14, 1334
4, 15, 1346
4, 16, 1328
4, 17, 1357
5, 0, 1333
5, 1, 1334
5, 2, 1333
5, 3, 1347
5, 4, 1313
5, 5, 1362
5, 6, 1329
5, 7, 1326
5, 8, 1372
5, 9, 1334
5, 10, 1344
5, 11, 1343
5, 12, 1335
5, 13, 1322
5, 14, 1333
5, 15, 1335
5, 16, 1330
5, 17, 1345
6, 0, 1340
6, 1, 1357
6, 2, 1360
6, 3, 1346
6, 4, 1306
6, 5, 1324
6, 6, 1371
6, 7, 1374
6, 8, 1349
6, 9, 1395
6, 10, 1359
6, 11, 1322
6, 12, 1317
6, 13, 1348
6, 14, 1352
6, 15, 1366
6, 16, 1354
6, 17, 1385
7, 0, 1362
7, 1, 1358
7, 2, 1336
7, 3, 1361
7, 4, 1367
7, 5, 1351
7, 6, 1337
7, 7, 1395
7, 8, 1424
7, 9, 1403
7, 10, 1358
7, 11, 1380
7, 12, 1365
7, 13, 1353
7, 14, 1351
7, 15, 1316
7, 16, 1320
7, 17, 1340
8, 0, 1334
8, 1, 1347
8, 2, 1352
8, 3, 1321
8, 4, 1374
8, 5, 1348
8, 6, 1366
8, 7, 1411
8, 8, 1482
8, 9, 1456
8, 10, 1379
8, 11, 1352
8, 12, 1324
8, 13, 1363
8, 14, 1345
8, 15, 1354
8, 16, 1379
8, 17, 1344
9, 0, 1355
9, 1, 1341
9, 2, 1320
9, 3, 1323
9, 4, 1329
9, 5, 1307
9, 6, 1337
9, 7, 1350
9, 8, 1425
9, 9, 1390
9, 10, 1369
9, 11, 1322
9, 12, 1347
9, 13, 1325
9, 14, 1376
9, 15, 1355
9, 16, 1344
9, 17, 1365
10, 0, 1343
10, 1, 1330
10, 2, 1372
10, 3, 1326
10, 4, 1399
10, 5, 1349
10, 6, 1329
10, 7, 1371
10, 8, 1343
10, 9, 1361
10, 10, 1361
10, 11, 1319
10, 12, 1331
10, 13, 1349
10, 14, 1339
10, 15, 1333
10, 16, 1334
10, 17, 1382
11, 0, 1334
11, 1, 1337
11, 2, 1302
11, 3, 1370
11, 4, 1341
11, 5, 1329
11, 6, 1326
11, 7, 1333
11, 8, 1322
11, 9, 1327
11, 10, 1336
11, 11, 1369
11, 12, 1330
11, 13, 1326
11, 14, 1393
11, 15, 1345
11, 16, 1278
11, 17, 1336
12, 0, 1351
12, 1, 1316
12, 2, 1374
12, 3, 1340
12, 4, 1309
12, 5, 1306
12, 6, 1329
12, 7, 1339
12, 8, 1356
12, 9, 1341
12, 10, 1327
12, 11, 1342
12, 12, 1348
12, 13, 1319
12, 14, 1327
12, 15, 1342
12, 16, 1310
12, 17, 1339
13, 0, 1315
13, 1, 1333
13, 2, 1342
13, 3, 1319
13, 4, 1334
13, 5, 1342
13, 6, 1351
13, 7, 1329
13, 8, 1323
13, 9, 1335
13, 10, 1334
13, 11, 1308
13, 12, 1304
13, 13, 1344
13, 14, 1310
13, 15, 1342
13, 16, 1307
13, 17, 1307
14, 0, 1387
14, 1, 1347
14, 2, 1349
14, 3, 1319
14, 4, 1325
14, 5, 1332
14, 6, 1390
14, 7, 1363
14, 8, 1317
14, 9, 1371
14, 10, 1333
14, 11, 1347
14, 12, 1330
14, 13, 1340
14, 14, 1366
14, 15, 1304
14, 16, 1342
14, 17, 1356
15, 0, 1346
15, 1, 1347
15, 2, 1349
15, 3, 1344
15, 4, 1385
15, 5, 1349
15, 6, 1359
15, 7, 1298
15, 8, 1333
15, 9, 1342
15, 10, 1345
15, 11, 1329
15, 12, 1341
15, 13, 1359
15, 14, 1345
15, 15, 1332
15, 16, 1325
15, 17, 1323
16, 0, 1340
16, 1, 1362
16, 2, 1369
16, 3, 1347
16, 4, 1338
16, 5, 1333
16, 6, 1329
16, 7, 1348
16, 8, 1326
16, 9, 1358
16, 10, 1330
16, 11, 1332
16, 12, 1368
16, 13, 1334
16, 14, 1316
16, 15, 1349
16, 16, 1307
16, 17, 1339
17, 0, 1346
17, 1, 1349
17, 2, 1318
17, 3, 1323
17, 4, 1324
17, 5, 1331
17, 6, 1326
17, 7, 1334
17, 8, 1326
17, 9, 1379
17, 10, 1324
17, 11, 1341
17, 12, 1342
17, 13, 1368
17, 14, 1332
17, 15, 1337
17, 16, 1340
17, 17, 1359
