digraph "classes_astronomo" {
charset="utf-8"
rankdir=BT;
splines=false;

"23" [shape="record", label="{FitsImage|points : NoneType\lhdulist : NoneType\lfilename\l|load()\lget_data()\lget_radec()\lget_time()\l}"];

"22" [shape="record", label="{Sequence|files : NoneType\lpath : str\lcur : int\llen : int\llisting : NoneType\l|delcur()\lget_element()\lend()\lnext()\literate()\lloadlist()\l}"];
"16" [shape="record", label="{AlignedSeq|transforms : list\llen\l|get_element()\l}"];
"16" -> "22" [arrowtail="none", arrowhead="empty"];

"26" [shape="record", label="{VideoWriter|maxoutsize : int\lfile : str\loutsize : NoneType, tuple\lwriter : NoneType\lfps : int\lfactor : float\lsize : NoneType\l|put_frame()\linit()\l}"];
"25" [shape="record", label="{Display|maxr : int\loutsize : NoneType, tuple\limage : NoneType\lshape : NoneType\lfactor : float\l|scalepnt()\limg()\lshow()\llines()\lfitsimg()\lpoints()\linitialize()\lline()\lsave()\l}"];
"25" -> "26" [arrowtail="none", arrowhead="diamond"];

"4" [shape="record", label="{Telescope|ccd\lmount\loutdir : NoneType\l|set_outdir()\ltake_single()\ltake_sequence()\l}"];
"36" -> "4" [arrowtail="none", arrowhead="diamond"];
"11" -> "4" [arrowtail="none", arrowhead="diamond"];

"36" [shape="record", label="{CCD|\l|status()\lsetup()\lset_dir()\lexpose()\l}"];
"35" [shape="record", label="{SynthCCD|starsgenerated : bool\lsleep\lwrite_astrometry_header\lstarttime : NoneType\lsynth\l|status()\lsetup()\lexpose()\l}"];
"33" [shape="record", label="{ApogeeCCD|apogeeclient\l|status()\lsetup()\lclient()\lset_dir()\lexpose()\l}"];
"33" -> "36" [arrowtail="none", arrowhead="empty"];
"35" -> "36" [arrowtail="none", arrowhead="empty"];

"11" [shape="record", label="{Mount|\l|setup()\lmoveto()\l}"];
"10" [shape="record", label="{FakeMount|\l|setup()\lmoveto()\l}"];
"12" [shape="record", label="{TemmaIndiMount|cli\lcli : NoneType\l|setf()\lget_text()\lsetup()\lmoveto()\lgetf()\lset_switch()\lset_text()\l}"];
"10" -> "11" [arrowtail="none", arrowhead="empty"];
"12" -> "11" [arrowtail="none", arrowhead="empty"];

"30" [shape="record", label="{StarSynth|noise : dict\lbnoise : dict\lbgradient : tuple\lobjects : list\lstars : list\lskycoord : tuple\ltrans : dict\lwrite_astrometry_header : bool\lsize : int\l|stars_from_catalog()\lradec2xy()\lgen_seq()\ladd_object()\lxy2radec()\lgen_sample()\lstars_from_random()\l}"];

"100" [fontcolor="red", shape="record", label="{Exception|\l}"];
"101" [fontcolor="red", shape="record", label="{MountFailure|\l}"];
"102" [fontcolor="red", shape="record", label="{NoAlignmentFound|\l}"];
"103" [fontcolor="red", shape="record", label="{NoFeatures|\l}"];
"104" [fontcolor="red", shape="record", label="{ValueNotInHeader|\l}"];
"105" [fontcolor="red", shape="record", label="{AstrometryFailed|\l}"];
"106" [fontcolor="red", shape="record", label="{CCDFailure|\l}"];
"101" -> "100" [arrowtail="none", arrowhead="empty"];
"102" -> "100" [arrowtail="none", arrowhead="empty"];
"103" -> "100" [arrowtail="none", arrowhead="empty"];
"104" -> "100" [arrowtail="none", arrowhead="empty"];
"105" -> "100" [arrowtail="none", arrowhead="empty"];
"106" -> "100" [arrowtail="none", arrowhead="empty"];
}
