%!PS-Adobe-3.0 EPSF-3.0
%%Creator: cairo 1.10.2 (http://cairographics.org)
%%CreationDate: Sun Mar 24 11:49:41 2013
%%Pages: 1
%%BoundingBox: 0 -1 308 206
%%DocumentData: Clean7Bit
%%LanguageLevel: 2
%%EndComments
%%BeginProlog
/cairo_eps_state save def
/dict_count countdictstack def
/op_count count 1 sub def
userdict begin
/q { gsave } bind def
/Q { grestore } bind def
/cm { 6 array astore concat } bind def
/w { setlinewidth } bind def
/J { setlinecap } bind def
/j { setlinejoin } bind def
/M { setmiterlimit } bind def
/d { setdash } bind def
/m { moveto } bind def
/l { lineto } bind def
/c { curveto } bind def
/h { closepath } bind def
/re { exch dup neg 3 1 roll 5 3 roll moveto 0 rlineto
      0 exch rlineto 0 rlineto closepath } bind def
/S { stroke } bind def
/f { fill } bind def
/f* { eofill } bind def
/n { newpath } bind def
/W { clip } bind def
/W* { eoclip } bind def
/BT { } bind def
/ET { } bind def
/pdfmark where { pop globaldict /?pdfmark /exec load put }
    { globaldict begin /?pdfmark /pop load def /pdfmark
    /cleartomark load def end } ifelse
/BDC { mark 3 1 roll /BDC pdfmark } bind def
/EMC { mark /EMC pdfmark } bind def
/cairo_store_point { /cairo_point_y exch def /cairo_point_x exch def } def
/Tj { show currentpoint cairo_store_point } bind def
/TJ {
  {
    dup
    type /stringtype eq
    { show } { -0.001 mul 0 cairo_font_matrix dtransform rmoveto } ifelse
  } forall
  currentpoint cairo_store_point
} bind def
/cairo_selectfont { cairo_font_matrix aload pop pop pop 0 0 6 array astore
    cairo_font exch selectfont cairo_point_x cairo_point_y moveto } bind def
/Tf { pop /cairo_font exch def /cairo_font_matrix where
      { pop cairo_selectfont } if } bind def
/Td { matrix translate cairo_font_matrix matrix concatmatrix dup
      /cairo_font_matrix exch def dup 4 get exch 5 get cairo_store_point
      /cairo_font where { pop cairo_selectfont } if } bind def
/Tm { 2 copy 8 2 roll 6 array astore /cairo_font_matrix exch def
      cairo_store_point /cairo_font where { pop cairo_selectfont } if } bind def
/g { setgray } bind def
/rg { setrgbcolor } bind def
/d1 { setcachedevice } bind def
%%EndProlog
%%Page: 1 1
%%BeginPageSetup
%%PageBoundingBox: 0 -1 308 206
%%EndPageSetup
q 0 -1 308 207 rectclip q
0 205.466 308 -206 re W n
1 g
120.699 18.087 m 113.949 10.162 l 115.359 8.931 l 122.137 16.853 l h
120.699 18.087 m f
119.961 15.755 m 120.168 13.107 l 123.012 19.326 l 117.312 15.548 l h
119.961 15.755 m f*
280.789 34.931 m 271.633 4.06 l 273.422 3.533 l 282.582 34.404 l h
280.789 34.931 m f
281.039 32.498 m 282.305 30.166 l 282.375 37.001 l 278.703 31.232 l h
281.039 32.498 m f*
295.758 184.896 m 293.938 184.427 l 301.566 152.791 l 303.387 153.232 l 
h
295.758 184.896 m f
295.375 182.47 m 297.641 181.087 l 294.273 187.037 l 293.988 180.205 l 
h
295.375 182.47 m f*
148.434 66.099 m 144.473 55.212 l 146.234 54.568 l 150.195 65.455 l h
148.434 66.099 m f
148.547 63.666 m 149.668 61.259 l 150.148 68.08 l 146.137 62.541 l h
148.547 63.666 m f*
174.172 194.466 m 172.5 193.584 l 181.242 177.357 l 182.887 178.236 l h
174.172 194.466 m f
174.402 192.033 m 176.945 191.267 l 172.176 196.166 l 173.637 189.49 l 
h
174.402 192.033 m f*
66.086 178.177 m 65.086 176.591 l 69.781 173.541 l 70.809 175.126 l h
66.086 178.177 m f
67.48 176.158 m 70.078 176.709 l 63.539 178.712 l 68.031 173.56 l h
67.48 176.158 m f*
229.316 81.712 m 227.32 60.466 l 229.199 60.291 l 231.164 81.537 l h
229.316 81.712 m f
230.031 79.384 m 231.727 77.337 l 230.465 84.06 l 227.984 77.689 l h
230.031 79.384 m f*
237.855 86.084 m 236.621 84.677 l 250.414 72.673 l 251.648 74.084 l h
237.855 86.084 m f
238.934 83.908 m 241.582 84.091 l 235.391 86.986 l 239.117 81.255 l h
238.934 83.908 m f*
0 1 1 rg
186.754 178.751 m 186.754 176.099 184.605 173.951 181.953 173.951 c 
179.301 173.951 177.152 176.099 177.152 178.751 c 177.152 181.404 
179.301 183.556 181.953 183.556 c 184.605 183.556 186.754 181.404 
186.754 178.751 c h
186.754 178.751 m f
22.41 95.513 m 22.41 92.861 20.262 90.709 17.609 90.709 c 14.957 90.709 
12.805 92.861 12.805 95.513 c 12.805 98.166 14.957 100.314 17.609 
100.314 c 20.262 100.314 22.41 98.166 22.41 95.513 c h
22.41 95.513 m f
9.605 66.697 m 9.605 64.044 7.453 61.896 4.801 61.896 c 2.148 61.896 0 
64.044 0 66.697 c 0 69.349 2.148 71.501 4.801 71.501 c 7.453 71.501 
9.605 69.349 9.605 66.697 c h
9.605 66.697 m f
119.523 9.072 m 119.523 6.419 117.375 4.267 114.723 4.267 c 112.07 
4.267 109.918 6.419 109.918 9.072 c 109.918 11.724 112.07 13.873 
114.723 13.873 c 117.375 13.873 119.523 11.724 119.523 9.072 c h
119.523 9.072 m f
150.473 54.959 m 150.473 52.306 148.32 50.158 145.668 50.158 c 143.016 
50.158 140.867 52.306 140.867 54.959 c 140.867 57.611 143.016 59.763 
145.668 59.763 c 148.32 59.763 150.473 57.611 150.473 54.959 c h
150.473 54.959 m f
75.77 174.482 m 75.77 171.83 73.621 169.681 70.969 169.681 c 68.316 
169.681 66.164 171.83 66.164 174.482 c 66.164 177.134 68.316 179.287 
70.969 179.287 c 73.621 179.287 75.77 177.134 75.77 174.482 c h
75.77 174.482 m f
232.645 60.294 m 232.645 57.642 230.496 55.494 227.844 55.494 c 225.191 
55.494 223.039 57.642 223.039 60.294 c 223.039 62.947 225.191 65.099 
227.844 65.099 c 230.496 65.099 232.645 62.947 232.645 60.294 c h
232.645 60.294 m f
255.055 74.169 m 255.055 71.517 252.906 69.365 250.254 69.365 c 247.602 
69.365 245.449 71.517 245.449 74.169 c 245.449 76.822 247.602 78.97 
250.254 78.97 c 252.906 78.97 255.055 76.822 255.055 74.169 c h
255.055 74.169 m f
277.465 4.802 m 277.465 2.15 275.316 0.001 272.664 0.001 c 270.012 
0.001 267.859 2.15 267.859 4.802 c 267.859 7.455 270.012 9.603 272.664 
9.603 c 275.316 9.603 277.465 7.455 277.465 4.802 c h
277.465 4.802 m f
307.348 153.138 m 307.348 150.486 305.195 148.337 302.543 148.337 c 
299.891 148.337 297.742 150.486 297.742 153.138 c 297.742 155.791 
299.891 157.943 302.543 157.943 c 305.195 157.943 307.348 155.791 
307.348 153.138 c h
307.348 153.138 m f
1 0 0 rg
174.102 201.345 m 174.477 198.716 172.652 196.287 170.027 195.908 c 
167.402 195.533 164.969 197.357 164.594 199.982 c 164.219 202.607 
166.039 205.041 168.668 205.416 c 171.293 205.794 173.727 203.97 
174.102 201.345 c h
174.102 201.345 m f
23.207 95.662 m 23.582 93.037 21.758 90.603 19.133 90.228 c 16.508 
89.853 14.074 91.673 13.699 94.302 c 13.32 96.927 15.145 99.357 17.77 
99.736 c 20.398 100.111 22.828 98.287 23.207 95.662 c h
23.207 95.662 m f
14.609 65.322 m 14.984 62.697 13.164 60.267 10.535 59.888 c 7.91 59.513 
5.48 61.337 5.102 63.962 c 4.727 66.587 6.551 69.021 9.176 69.396 c 
11.801 69.771 14.234 67.951 14.609 65.322 c h
14.609 65.322 m f
131.586 23.849 m 131.961 21.224 130.137 18.791 127.512 18.416 c 124.887 
18.041 122.453 19.865 122.078 22.49 c 121.703 25.115 123.523 27.548 
126.152 27.923 c 128.777 28.298 131.211 26.474 131.586 23.849 c h
131.586 23.849 m f
155.719 73.658 m 156.098 71.033 154.273 68.603 151.645 68.224 c 149.02 
67.849 146.59 69.673 146.211 72.298 c 145.836 74.923 147.66 77.357 
150.285 77.732 c 152.91 78.107 155.344 76.287 155.719 73.658 c h
155.719 73.658 m f
64.84 181.396 m 65.215 178.771 63.391 176.337 60.766 175.962 c 58.141 
175.584 55.707 177.408 55.332 180.033 c 54.953 182.658 56.777 185.091 
59.402 185.47 c 62.031 185.845 64.461 184.021 64.84 181.396 c h
64.84 181.396 m f
236.309 90.584 m 236.684 87.959 234.859 85.525 232.234 85.15 c 229.609 
84.775 227.176 86.595 226.801 89.224 c 226.426 91.849 228.25 94.279 
230.875 94.658 c 233.5 95.033 235.934 93.209 236.309 90.584 c h
236.309 90.584 m f
256.527 107.49 m 256.902 104.865 255.078 102.431 252.453 102.056 c 
249.828 101.681 247.395 103.505 247.02 106.13 c 246.645 108.755 248.469 
111.189 251.094 111.564 c 253.719 111.939 256.152 110.115 256.527 
107.49 c h
256.527 107.49 m f
288.539 41.998 m 288.914 39.373 287.09 36.939 284.465 36.564 c 281.84 
36.189 279.406 38.013 279.031 40.638 c 278.656 43.263 280.48 45.697 
283.105 46.072 c 285.73 46.447 288.164 44.626 288.539 41.998 c h
288.539 41.998 m f
297.105 193.076 m 297.48 190.447 295.656 188.017 293.031 187.638 c 
290.406 187.263 287.973 189.087 287.598 191.712 c 287.219 194.337 
289.043 196.771 291.668 197.146 c 294.293 197.525 296.727 195.701 
297.105 193.076 c h
297.105 193.076 m f
Q Q
showpage
%%Trailer
count op_count sub {pop} repeat
countdictstack dict_count sub {end} repeat
cairo_eps_state restore
%%EOF
