%!PS-Adobe-3.0 EPSF-3.0
%%Creator: cairo 1.10.2 (http://cairographics.org)
%%CreationDate: Fri Mar 22 15:03:39 2013
%%Pages: 1
%%BoundingBox: 0 -1 407 407
%%DocumentData: Clean7Bit
%%LanguageLevel: 2
%%EndComments
%%BeginProlog
/cairo_eps_state save def
/dict_count countdictstack def
/op_count count 1 sub def
userdict begin
/q { gsave } bind def
/Q { grestore } bind def
/cm { 6 array astore concat } bind def
/w { setlinewidth } bind def
/J { setlinecap } bind def
/j { setlinejoin } bind def
/M { setmiterlimit } bind def
/d { setdash } bind def
/m { moveto } bind def
/l { lineto } bind def
/c { curveto } bind def
/h { closepath } bind def
/re { exch dup neg 3 1 roll 5 3 roll moveto 0 rlineto
      0 exch rlineto 0 rlineto closepath } bind def
/S { stroke } bind def
/f { fill } bind def
/f* { eofill } bind def
/n { newpath } bind def
/W { clip } bind def
/W* { eoclip } bind def
/BT { } bind def
/ET { } bind def
/pdfmark where { pop globaldict /?pdfmark /exec load put }
    { globaldict begin /?pdfmark /pop load def /pdfmark
    /cleartomark load def end } ifelse
/BDC { mark 3 1 roll /BDC pdfmark } bind def
/EMC { mark /EMC pdfmark } bind def
/cairo_store_point { /cairo_point_y exch def /cairo_point_x exch def } def
/Tj { show currentpoint cairo_store_point } bind def
/TJ {
  {
    dup
    type /stringtype eq
    { show } { -0.001 mul 0 cairo_font_matrix dtransform rmoveto } ifelse
  } forall
  currentpoint cairo_store_point
} bind def
/cairo_selectfont { cairo_font_matrix aload pop pop pop 0 0 6 array astore
    cairo_font exch selectfont cairo_point_x cairo_point_y moveto } bind def
/Tf { pop /cairo_font exch def /cairo_font_matrix where
      { pop cairo_selectfont } if } bind def
/Td { matrix translate cairo_font_matrix matrix concatmatrix dup
      /cairo_font_matrix exch def dup 4 get exch 5 get cairo_store_point
      /cairo_font where { pop cairo_selectfont } if } bind def
/Tm { 2 copy 8 2 roll 6 array astore /cairo_font_matrix exch def
      cairo_store_point /cairo_font where { pop cairo_selectfont } if } bind def
/g { setgray } bind def
/rg { setrgbcolor } bind def
/d1 { setcachedevice } bind def
%%EndProlog
%%Page: 1 1
%%BeginPageSetup
%%PageBoundingBox: 0 -1 407 407
%%EndPageSetup
q 0 -1 407 408 rectclip q
0 406.261 407 -407 re W n
0.85098 g
86.875 37.155 m 190.66 273.69 l 319.324 369.124 l 175.695 111.011 l h
86.875 37.155 m f
0.501961 g
0.80569 w
0 J
0 j
[] 0.0 d
10 M q 1 0 0 1 0 406.26062 cm
86.875 -369.105 m 190.66 -132.57 l 319.324 -37.137 l 175.695 -295.25 l 
h
86.875 -369.105 m S Q
0 g
1.6114 w
q 1 0 0 1 0 406.26062 cm
86.875 -369.105 m 369.082 -319.348 l S Q
379.508 82.358 m 379.82 82.155 380.234 82.054 380.746 82.054 c 381.25 
82.054 381.695 82.292 382.082 82.772 c 382.465 83.261 382.73 83.784 
382.871 84.343 c 383.957 88.698 l 384.137 89.436 384.227 89.96 384.227 
90.268 c 384.227 90.682 384.117 91.042 383.898 91.343 c 383.684 91.64 
383.375 91.788 382.965 91.788 c 382.445 91.788 381.965 91.628 381.527 
91.304 c 381.094 90.983 380.73 90.577 380.441 90.089 c 380.156 89.608 
379.953 89.124 379.824 88.628 c 379.785 88.507 379.73 88.448 379.66 
88.448 c 379.367 88.448 l 379.254 88.448 379.199 88.53 379.199 88.698 c 
379.352 89.296 379.605 89.874 379.969 90.432 c 380.328 90.999 380.773 
91.464 381.301 91.823 c 381.828 92.186 382.398 92.366 383.012 92.366 c 
383.594 92.366 384.109 92.206 384.559 91.886 c 385.016 91.569 385.336 
91.136 385.527 90.585 c 385.793 91.089 386.133 91.511 386.543 91.847 c 
386.957 92.194 387.418 92.366 387.922 92.366 c 388.496 92.366 389.012 
92.233 389.469 91.968 c 389.926 91.706 390.152 91.319 390.152 90.8 c 
390.152 90.421 390.031 90.093 389.789 89.819 c 389.543 89.55 389.238 
89.417 388.867 89.417 c 388.637 89.417 388.438 89.491 388.266 89.64 c 
388.098 89.792 388.016 89.983 388.016 90.222 c 388.016 90.526 388.125 
90.8 388.336 91.034 c 388.555 91.276 388.816 91.425 389.113 91.472 c 
388.824 91.682 388.41 91.788 387.875 91.788 c 387.379 91.788 386.938 
91.55 386.555 91.069 c 386.176 90.589 385.918 90.061 385.773 89.487 c 
384.688 85.143 l 384.508 84.515 384.418 83.991 384.418 83.573 c 384.418 
83.167 384.527 82.807 384.746 82.503 c 384.969 82.202 385.277 82.054 
385.68 82.054 c 386.418 82.054 387.078 82.382 387.652 83.046 c 388.234 
83.714 388.621 84.436 388.82 85.214 c 388.859 85.327 388.914 85.382 
388.984 85.382 c 389.281 85.382 l 389.328 85.382 389.367 85.358 389.398 
85.311 c 389.43 85.265 389.445 85.206 389.445 85.143 c 389.297 84.546 
389.035 83.964 388.664 83.397 c 388.305 82.831 387.859 82.366 387.332 
82.007 c 386.812 81.651 386.246 81.475 385.633 81.475 c 385.254 81.475 
384.891 81.55 384.535 81.698 c 384.188 81.847 383.895 82.061 383.648 
82.335 c 383.406 82.612 383.23 82.917 383.117 83.257 c 382.867 82.753 
382.527 82.327 382.105 81.983 c 381.688 81.643 381.227 81.475 380.723 
81.475 c 380.156 81.475 379.641 81.604 379.176 81.862 c 378.719 82.124 
378.492 82.518 378.492 83.046 c 378.492 83.421 378.613 83.745 378.859 
84.011 c 379.102 84.28 379.41 84.413 379.777 84.413 c 380.023 84.413 
380.223 84.339 380.379 84.19 c 380.547 84.046 380.629 83.858 380.629 
83.624 c 380.629 83.323 380.52 83.05 380.297 82.796 c 380.086 82.554 
379.82 82.405 379.508 82.358 c f
q 1 0 0 1 0 406.26062 cm
86.875 -369.105 m 37.113 -86.898 l S Q
32.754 329.39 m 32.895 329.073 33.125 328.831 33.449 328.659 c 33.781 
328.483 34.133 328.397 34.512 328.397 c 35.48 328.397 36.309 328.858 37 
329.78 c 37.703 330.69 38.188 331.698 38.453 332.8 c 38.641 333.581 l 
37.918 332.87 37.141 332.518 36.305 332.518 c 35.418 332.518 34.707 
332.765 34.18 333.261 c 33.66 333.765 33.402 334.456 33.402 335.339 c 
33.402 335.706 33.445 336.112 33.531 336.554 c 33.617 337.003 33.719 
337.417 33.84 337.792 c 33.965 338.171 34.148 338.698 34.395 339.374 c 
34.645 340.05 34.797 340.464 34.855 340.612 c 35.074 341.202 35.184 
341.694 35.184 342.089 c 35.184 342.585 35 342.831 34.629 342.831 c 34 
342.831 33.48 342.511 33.07 341.866 c 32.672 341.218 32.359 340.487 
32.141 339.671 c 32.102 339.55 32.043 339.491 31.973 339.491 c 31.691 
339.491 l 31.574 339.491 31.512 339.573 31.512 339.741 c 31.758 340.69 
32.141 341.542 32.66 342.288 c 33.188 343.038 33.859 343.409 34.676 
343.409 c 35.234 343.409 35.699 343.222 36.07 342.843 c 36.445 342.475 
36.637 342.011 36.637 341.452 c 36.637 341.151 36.574 340.847 36.445 
340.53 c 36.383 340.358 36.223 339.932 35.965 339.257 c 35.711 338.581 
35.52 338.018 35.387 337.569 c 35.25 337.12 35.141 336.686 35.055 
336.268 c 34.969 335.854 34.926 335.44 34.926 335.03 c 34.926 334.479 
35.039 334.018 35.266 333.651 c 35.496 333.28 35.855 333.097 36.352 
333.097 c 37.359 333.097 38.238 333.706 38.984 334.925 c 40.871 342.421 
l 40.922 342.64 41.035 342.819 41.215 342.964 c 41.395 343.104 41.598 
343.175 41.816 343.175 c 42.004 343.175 42.16 343.116 42.277 342.999 c 
42.402 342.886 42.465 342.733 42.465 342.538 c 42.465 342.347 l 40.047 
332.706 l 39.828 331.854 39.445 331.061 38.902 330.323 c 38.367 329.573 
37.711 328.972 36.93 328.515 c 36.152 328.054 35.336 327.819 34.488 
327.819 c 34.078 327.819 33.68 327.901 33.297 328.069 c 32.918 328.225 
32.609 328.46 32.375 328.776 c 32.141 329.089 32.02 329.456 32.02 
329.874 c 32.02 330.307 32.137 330.671 32.363 330.972 c 32.59 331.268 
32.914 331.421 33.332 331.421 c 33.566 331.421 33.766 331.354 33.922 
331.218 c 34.086 331.077 34.168 330.89 34.168 330.651 c 34.168 330.307 
34.043 330.007 33.793 329.757 c 33.547 329.495 33.258 329.366 32.918 
329.366 c 32.848 329.39 l 32.754 329.39 l f
q 1 0 0 1 0 406.26062 cm
354.973 -321.836 m 355.066 -321.816 l S Q
342.008 87.741 m 355.762 84.565 l 343.926 76.878 l h
342.008 87.741 m f
1.588615 w
q 1 0.176323 -0.176323 1 0 406.26062 cm
277.226 -367.401 m 290.023 -372.833 l 277.229 -378.265 l h
277.226 -367.401 m S Q
1.6114 w
q 1 0 0 1 0 406.26062 cm
39.602 -101.008 m 39.586 -100.914 l S Q
36.289 292.292 m 39.465 306.042 l 47.152 294.206 l h
36.289 292.292 m f
1.588615 w
q -0.176323 1 -1 -0.176323 0 406.26062 cm
-116.738 -15.705 m -103.946 -21.137 l -116.739 -26.568 l h
-116.738 -15.705 m S Q
0.80569 w
q 1 0 0 1 0 406.26062 cm
367.332 -309.43 m 370.832 -329.266 l S Q
367.211 53.128 m 367.211 53.929 l 369.172 53.929 370.152 54.186 370.152 
54.698 c 370.152 67.491 l 369.309 67.065 368.277 66.854 367.059 66.854 
c 367.059 67.655 l 368.973 67.655 370.422 68.171 371.414 69.202 c 
371.734 69.202 l 371.781 69.202 371.824 69.182 371.863 69.143 c 371.902 
69.104 371.922 69.061 371.922 69.015 c 371.922 54.698 l 371.922 54.186 
372.906 53.929 374.871 53.929 c 374.871 53.128 l 367.211 53.128 l f
q 1 0 0 1 0 406.26062 cm
47.031 -85.148 m 27.195 -88.645 l S Q
9.375 309.823 m 9.375 310.624 l 11.332 310.624 12.312 310.882 12.312 
311.393 c 12.312 324.186 l 11.469 323.761 10.441 323.55 9.219 323.55 c 
9.219 324.35 l 11.133 324.35 12.582 324.866 13.574 325.897 c 13.895 
325.897 l 13.941 325.897 13.984 325.878 14.023 325.839 c 14.062 325.8 
14.082 325.757 14.082 325.71 c 14.082 311.393 l 14.082 310.882 15.066 
310.624 17.035 310.624 c 17.035 309.823 l 9.375 309.823 l f
0.501961 g
0.402845 w
q 1 0 0 1 0 406.26062 cm
369.082 -319.348 m 319.324 -37.137 l 37.113 -86.898 l S Q
0 g
93.816 38.378 m 93.137 42.233 89.504 44.776 85.648 44.097 c 81.797 
43.417 79.25 39.784 79.93 35.932 c 80.609 32.077 84.246 29.534 88.098 
30.214 c 91.953 30.89 94.496 34.526 93.816 38.378 c h
326.266 370.347 m 325.586 374.198 321.953 376.745 318.098 376.065 c 
314.246 375.386 311.699 371.753 312.379 367.897 c 313.059 364.046 
316.695 361.499 320.547 362.179 c 324.398 362.858 326.945 366.495 
326.266 370.347 c h
182.641 112.237 m 181.961 116.089 178.324 118.636 174.473 117.956 c 
170.621 117.276 168.074 113.64 168.754 109.788 c 169.434 105.932 
173.066 103.39 176.922 104.069 c 180.773 104.749 183.32 108.382 182.641 
112.237 c h
197.602 274.913 m 196.922 278.768 193.289 281.311 189.434 280.632 c 
185.582 279.956 183.035 276.319 183.715 272.468 c 184.395 268.612 
188.031 266.069 191.883 266.749 c 195.734 267.429 198.281 271.061 
197.602 274.913 c h
197.602 274.913 m f
0.80569 w
q 1 0 0 1 0 406.26062 cm
93.816 -367.883 m 93.137 -364.027 89.504 -361.484 85.648 -362.164 c 
81.797 -362.844 79.25 -366.477 79.93 -370.328 c 80.609 -374.184 84.246 
-376.727 88.098 -376.047 c 91.953 -375.371 94.496 -371.734 93.816 
-367.883 c h
326.266 -35.914 m 325.586 -32.062 321.953 -29.516 318.098 -30.195 c 
314.246 -30.875 311.699 -34.508 312.379 -38.363 c 313.059 -42.215 
316.695 -44.762 320.547 -44.082 c 324.398 -43.402 326.945 -39.766 
326.266 -35.914 c h
182.641 -294.023 m 181.961 -290.172 178.324 -287.625 174.473 -288.305 c 
170.621 -288.984 168.074 -292.621 168.754 -296.473 c 169.434 -300.328 
173.066 -302.871 176.922 -302.191 c 180.773 -301.512 183.32 -297.879 
182.641 -294.023 c h
197.602 -131.348 m 196.922 -127.492 193.289 -124.949 189.434 -125.629 c 
185.582 -126.305 183.035 -129.941 183.715 -133.793 c 184.395 -137.648 
188.031 -140.191 191.883 -139.512 c 195.734 -138.832 198.281 -135.199 
197.602 -131.348 c h
197.602 -131.348 m S Q
61.855 12.347 m 61.715 12.347 61.645 12.436 61.645 12.62 c 61.738 
12.995 l 61.77 13.1 61.832 13.151 61.926 13.151 c 63.164 13.151 64.098 
13.682 64.734 14.741 c 64.734 14.761 64.742 14.772 64.758 14.78 c 
64.781 14.792 l 73.48 29.39 l 73.566 29.53 73.699 29.6 73.871 29.6 c 
74.152 29.6 l 74.336 29.6 74.426 29.53 74.426 29.39 c 75.949 13.706 l 
76.004 13.468 76.199 13.315 76.539 13.245 c 76.875 13.182 77.277 13.151 
77.742 13.151 c 77.805 13.151 77.855 13.12 77.895 13.054 c 77.934 
12.999 77.953 12.948 77.953 12.901 c 77.859 12.511 l 77.82 12.401 
77.723 12.347 77.566 12.347 c 71.984 12.347 l 71.84 12.347 71.77 12.436 
71.77 12.62 c 71.863 12.995 l 71.895 13.1 71.957 13.151 72.055 13.151 c 
73.25 13.151 73.879 13.366 73.941 13.8 c 73.527 17.929 l 67.461 17.929 
l 65.457 14.565 l 65.328 14.362 65.266 14.143 65.266 13.917 c 65.266 
13.64 65.387 13.444 65.621 13.327 c 65.863 13.21 66.133 13.151 66.422 
13.151 c 66.48 13.151 66.523 13.124 66.555 13.065 c 66.594 13.018 
66.613 12.964 66.613 12.901 c 66.52 12.511 l 66.504 12.401 66.414 
12.347 66.258 12.347 c 61.855 12.347 l 67.945 18.733 m 73.457 18.733 l 
72.715 26.733 l 67.945 18.733 l f
328.945 377.409 m 328.797 377.409 328.719 377.499 328.719 377.682 c 
328.816 378.057 l 328.824 378.081 328.852 378.112 328.898 378.151 c 
328.945 378.194 328.984 378.214 329.016 378.214 c 329.676 378.214 
330.203 378.261 330.598 378.354 c 331 378.448 331.258 378.679 331.375 
379.05 c 334.691 392.374 l 334.738 392.491 334.762 392.612 334.762 
392.729 c 334.762 392.987 334.125 393.12 332.852 393.12 c 332.805 
393.12 332.762 393.147 332.723 393.202 c 332.684 393.265 332.664 
393.327 332.664 393.39 c 332.758 393.768 l 332.789 393.87 332.855 
393.921 332.957 393.921 c 341.242 393.921 l 342.359 393.921 343.355 
393.628 344.227 393.046 c 345.109 392.472 345.551 391.651 345.551 
390.581 c 345.551 389.796 345.297 389.077 344.797 388.432 c 344.293 
387.788 343.645 387.261 342.859 386.85 c 342.082 386.44 341.309 386.171 
340.547 386.038 c 341.137 386.038 341.719 385.886 342.293 385.589 c 
342.875 385.288 343.344 384.882 343.699 384.362 c 344.059 383.843 
344.242 383.28 344.242 382.675 c 344.242 381.932 344.043 381.241 
343.648 380.597 c 343.266 379.96 342.742 379.401 342.082 378.921 c 
341.426 378.44 340.719 378.065 339.957 377.8 c 339.199 377.538 338.477 
377.409 337.785 377.409 c 328.945 377.409 l 333.074 378.425 m 333.074 
378.284 333.34 378.214 333.867 378.214 c 337.324 378.214 l 338.117 
378.214 338.891 378.429 339.637 378.862 c 340.387 379.304 340.984 
379.886 341.43 380.608 c 341.887 381.339 342.117 382.104 342.117 
382.897 c 342.117 383.69 341.879 384.358 341.406 384.893 c 340.938 
385.429 340.309 385.694 339.531 385.694 c 334.859 385.694 l 333.168 
378.956 l 333.105 378.733 333.074 378.557 333.074 378.425 c 335.012 
386.284 m 338.68 386.284 l 339.453 386.284 340.203 386.483 340.938 
386.874 c 341.668 387.268 342.266 387.804 342.73 388.479 c 343.203 
389.155 343.438 389.882 343.438 390.651 c 343.438 391.366 343.219 
391.956 342.777 392.421 c 342.344 392.886 341.77 393.12 341.055 393.12 
c 337.715 393.12 l 337.273 393.12 336.984 393.073 336.852 392.987 c 
336.727 392.901 336.613 392.667 336.512 392.28 c 335.012 386.284 l f
187.281 91.468 m 187.281 89.995 187.707 88.8 188.566 87.878 c 189.426 
86.96 190.59 86.499 192.059 86.499 c 193.066 86.499 194.031 86.757 
194.953 87.276 c 195.879 87.804 196.68 88.499 197.348 89.366 c 198.016 
90.241 198.469 91.159 198.703 92.128 c 198.734 92.222 198.793 92.268 
198.883 92.268 c 199.164 92.268 l 199.219 92.268 199.258 92.249 199.281 
92.21 c 199.312 92.171 199.328 92.12 199.328 92.057 c 199.133 91.206 
198.781 90.401 198.281 89.636 c 197.785 88.874 197.184 88.194 196.473 
87.597 c 195.766 87.007 194.992 86.542 194.148 86.202 c 193.309 85.866 
192.449 85.694 191.574 85.694 c 190.324 85.694 189.211 85.979 188.234 
86.546 c 187.27 87.12 186.516 87.901 185.98 88.893 c 185.453 89.893 
185.191 91.011 185.191 92.245 c 185.191 93.585 185.48 94.909 186.062 
96.222 c 186.652 97.546 187.453 98.733 188.461 99.788 c 189.469 100.843 
190.617 101.675 191.906 102.288 c 193.195 102.913 194.516 103.222 
195.859 103.222 c 196.688 103.222 197.445 103.026 198.137 102.632 c 
198.832 102.245 199.375 101.698 199.766 100.991 c 201.633 103.175 l 
201.664 103.206 201.703 103.222 201.75 103.222 c 201.902 103.222 l 
202.012 103.222 202.066 103.147 202.066 102.999 c 200.449 96.495 l 
200.426 96.386 200.367 96.331 200.273 96.331 c 199.871 96.331 l 199.754 
96.331 199.695 96.413 199.695 96.577 c 199.758 96.956 199.789 97.378 
199.789 97.85 c 199.789 99.12 199.477 100.198 198.848 101.085 c 198.223 
101.975 197.316 102.421 196.121 102.421 c 194.82 102.421 193.621 
102.093 192.52 101.44 c 191.418 100.788 190.473 99.913 189.688 98.819 c 
188.902 97.725 188.301 96.534 187.895 95.245 c 187.484 93.96 187.281 
92.702 187.281 91.468 c f
163.344 281.979 m 163.195 281.979 163.121 282.069 163.121 282.249 c 
163.215 282.628 l 163.223 282.651 163.25 282.682 163.297 282.722 c 
163.344 282.761 163.383 282.78 163.414 282.78 c 164.078 282.78 164.605 
282.827 164.996 282.925 c 165.398 283.018 165.656 283.249 165.777 
283.62 c 169.094 296.944 l 169.141 297.061 169.164 297.179 169.164 
297.3 c 169.164 297.557 168.527 297.686 167.25 297.686 c 167.203 
297.686 167.16 297.714 167.121 297.768 c 167.082 297.835 167.062 
297.897 167.062 297.96 c 167.156 298.335 l 167.188 298.44 167.254 
298.491 167.359 298.491 c 175.691 298.491 l 176.809 298.491 177.773 
298.214 178.594 297.663 c 179.418 297.12 180.051 296.386 180.48 295.456 
c 180.914 294.53 181.129 293.526 181.129 292.448 c 181.129 291.206 
180.875 289.96 180.363 288.718 c 179.859 287.483 179.156 286.347 178.25 
285.307 c 177.348 284.276 176.32 283.464 175.172 282.862 c 174.023 
282.272 172.824 281.979 171.582 281.979 c 163.344 281.979 l 167.547 
282.995 m 167.547 282.85 167.809 282.78 168.336 282.78 c 171.219 282.78 
l 172.09 282.78 172.949 282.968 173.789 283.335 c 174.633 283.714 
175.387 284.229 176.055 284.882 c 176.652 285.479 177.188 286.272 
177.66 287.253 c 178.141 288.245 178.508 289.268 178.758 290.323 c 
179.02 291.386 179.148 292.366 179.148 293.261 c 179.148 294.136 
178.984 294.901 178.652 295.561 c 178.328 296.233 177.852 296.753 
177.211 297.12 c 176.574 297.499 175.82 297.686 174.945 297.686 c 
172.184 297.686 l 171.742 297.686 171.457 297.643 171.324 297.557 c 
171.195 297.472 171.082 297.233 170.98 296.85 c 167.641 283.526 l 
167.578 283.304 167.547 283.128 167.547 282.995 c f
[ 6.042837 6.042837] 0 d
q 1 0 0 1 0 406.26062 cm
185.648 -351.691 m 175.695 -295.25 l 76.922 -312.664 l S Q
173.484 36.522 m 173.797 36.319 174.211 36.214 174.723 36.214 c 175.227 
36.214 175.672 36.456 176.055 36.936 c 176.441 37.425 176.707 37.944 
176.848 38.507 c 177.934 42.858 l 178.113 43.6 178.203 44.124 178.203 
44.429 c 178.203 44.847 178.094 45.206 177.875 45.503 c 177.66 45.804 
177.352 45.952 176.941 45.952 c 176.422 45.952 175.941 45.792 175.5 
45.468 c 175.07 45.147 174.707 44.741 174.414 44.253 c 174.133 43.772 
173.93 43.284 173.801 42.788 c 173.762 42.671 173.707 42.612 173.637 
42.612 c 173.344 42.612 l 173.23 42.612 173.176 42.694 173.176 42.858 c 
173.324 43.456 173.582 44.038 173.945 44.597 c 174.305 45.163 174.75 
45.624 175.277 45.987 c 175.805 46.35 176.375 46.53 176.988 46.53 c 
177.57 46.53 178.086 46.37 178.535 46.046 c 178.992 45.733 179.312 45.3 
179.504 44.749 c 179.77 45.253 180.109 45.671 180.52 46.011 c 180.934 
46.358 181.395 46.53 181.898 46.53 c 182.473 46.53 182.988 46.397 
183.445 46.128 c 183.902 45.87 184.129 45.479 184.129 44.96 c 184.129 
44.585 184.008 44.257 183.762 43.979 c 183.52 43.714 183.211 43.581 
182.844 43.581 c 182.613 43.581 182.414 43.655 182.242 43.804 c 182.074 
43.952 181.992 44.147 181.992 44.382 c 181.992 44.69 182.098 44.96 
182.312 45.198 c 182.531 45.44 182.793 45.585 183.09 45.632 c 182.801 
45.847 182.387 45.952 181.852 45.952 c 181.355 45.952 180.914 45.714 
180.531 45.233 c 180.152 44.753 179.891 44.225 179.75 43.651 c 178.664 
39.307 l 178.484 38.679 178.395 38.155 178.395 37.737 c 178.395 37.327 
178.504 36.972 178.723 36.663 c 178.945 36.366 179.254 36.214 179.656 
36.214 c 180.395 36.214 181.051 36.546 181.629 37.206 c 182.211 37.874 
182.598 38.6 182.797 39.378 c 182.836 39.487 182.891 39.542 182.961 
39.542 c 183.254 39.542 l 183.305 39.542 183.344 39.518 183.375 39.472 
c 183.406 39.425 183.422 39.37 183.422 39.307 c 183.273 38.71 183.012 
38.128 182.641 37.561 c 182.281 36.995 181.836 36.53 181.309 36.167 c 
180.789 35.815 180.223 35.636 179.609 35.636 c 179.23 35.636 178.867 
35.71 178.512 35.862 c 178.164 36.011 177.871 36.222 177.625 36.499 c 
177.383 36.772 177.207 37.081 177.094 37.421 c 176.844 36.917 176.504 
36.491 176.078 36.143 c 175.664 35.807 175.203 35.636 174.699 35.636 c 
174.133 35.636 173.617 35.768 173.152 36.026 c 172.695 36.284 172.469 
36.679 172.469 37.206 c 172.469 37.585 172.59 37.905 172.836 38.175 c 
173.078 38.44 173.387 38.577 173.754 38.577 c 174 38.577 174.199 38.499 
174.355 38.35 c 174.523 38.21 174.605 38.022 174.605 37.784 c 174.605 
37.487 174.496 37.21 174.273 36.96 c 174.062 36.714 173.797 36.569 
173.484 36.522 c f
187.645 35.874 m 187.645 35.202 187.785 34.612 188.062 34.104 c 188.34 
33.597 188.734 33.202 189.25 32.925 c 189.766 32.647 190.355 32.507 
191.027 32.507 c 191.727 32.507 192.402 32.671 193.059 33.003 c 193.715 
33.339 194.277 33.792 194.75 34.362 c 195.223 34.94 195.539 35.561 
195.703 36.229 c 195.723 36.311 195.781 36.354 195.883 36.354 c 196.086 
36.354 l 196.133 36.354 196.176 36.335 196.215 36.3 c 196.25 36.261 
196.27 36.218 196.27 36.167 c 196.27 36.155 196.262 36.14 196.254 36.12 
c 196.059 35.335 195.68 34.624 195.121 33.979 c 194.562 33.335 193.898 
32.827 193.129 32.46 c 192.363 32.093 191.578 31.909 190.777 31.909 c 
189.895 31.909 189.094 32.097 188.367 32.468 c 187.645 32.847 187.078 
33.374 186.668 34.057 c 186.262 34.737 186.055 35.518 186.055 36.401 c 
186.055 37.331 186.27 38.233 186.691 39.108 c 187.121 39.983 187.707 
40.761 188.441 41.436 c 189.176 42.112 189.988 42.64 190.887 43.018 c 
191.785 43.401 192.688 43.593 193.594 43.593 c 194.172 43.593 194.703 
43.472 195.191 43.222 c 195.684 42.983 196.086 42.632 196.395 42.179 c 
197.684 43.546 l 197.715 43.577 197.754 43.593 197.801 43.593 c 197.898 
43.593 l 197.949 43.593 197.992 43.573 198.023 43.538 c 198.055 43.503 
198.07 43.456 198.07 43.397 c 198.07 43.35 l 196.992 39.077 l 196.973 
38.983 196.918 38.936 196.836 38.936 c 196.59 38.936 l 196.469 38.936 
196.41 39.007 196.41 39.147 c 196.445 39.382 196.465 39.632 196.465 
39.886 c 196.465 40.452 196.359 40.972 196.141 41.444 c 195.934 41.917 
195.625 42.292 195.215 42.569 c 194.805 42.854 194.312 42.995 193.734 
42.995 c 192.859 42.995 192.043 42.792 191.289 42.382 c 190.531 41.979 
189.883 41.429 189.344 40.729 c 188.805 40.038 188.383 39.265 188.086 
38.417 c 187.793 37.573 187.645 36.725 187.645 35.874 c f
44.586 87.378 m 44.727 87.061 44.957 86.819 45.281 86.647 c 45.609 
86.472 45.965 86.386 46.344 86.386 c 47.312 86.386 48.141 86.847 48.832 
87.768 c 49.535 88.679 50.016 89.686 50.285 90.788 c 50.473 91.569 l 
49.75 90.858 48.973 90.507 48.137 90.507 c 47.246 90.507 46.539 90.753 
46.012 91.249 c 45.492 91.753 45.234 92.444 45.234 93.327 c 45.234 
93.694 45.277 94.1 45.363 94.542 c 45.449 94.991 45.551 95.405 45.672 
95.78 c 45.797 96.159 45.98 96.686 46.227 97.362 c 46.477 98.038 46.629 
98.452 46.684 98.6 c 46.906 99.19 47.016 99.682 47.016 100.077 c 47.016 
100.573 46.832 100.819 46.461 100.819 c 45.832 100.819 45.312 100.499 
44.902 99.854 c 44.5 99.206 44.191 98.475 43.973 97.659 c 43.93 97.538 
43.875 97.479 43.805 97.479 c 43.523 97.479 l 43.402 97.479 43.344 
97.561 43.344 97.729 c 43.59 98.679 43.973 99.53 44.488 100.276 c 
45.016 101.026 45.691 101.397 46.508 101.397 c 47.066 101.397 47.531 
101.21 47.902 100.831 c 48.277 100.464 48.469 99.999 48.469 99.44 c 
48.469 99.14 48.406 98.835 48.277 98.518 c 48.215 98.347 48.055 97.921 
47.793 97.245 c 47.543 96.569 47.352 96.007 47.215 95.557 c 47.082 
95.108 46.973 94.675 46.887 94.257 c 46.801 93.843 46.758 93.429 46.758 
93.018 c 46.758 92.468 46.871 92.007 47.098 91.64 c 47.328 91.268 
47.688 91.085 48.184 91.085 c 49.191 91.085 50.07 91.694 50.816 92.913 
c 52.703 100.409 l 52.75 100.628 52.867 100.807 53.047 100.952 c 53.227 
101.093 53.43 101.163 53.648 101.163 c 53.836 101.163 53.992 101.104 
54.109 100.987 c 54.234 100.874 54.297 100.722 54.297 100.526 c 54.297 
100.335 l 51.879 90.694 l 51.656 89.843 51.277 89.05 50.734 88.311 c 
50.199 87.561 49.543 86.96 48.762 86.503 c 47.984 86.042 47.168 85.807 
46.32 85.807 c 45.91 85.807 45.512 85.89 45.129 86.057 c 44.75 86.214 
44.441 86.448 44.207 86.765 c 43.973 87.077 43.852 87.444 43.852 87.862 
c 43.852 88.296 43.969 88.659 44.195 88.96 c 44.422 89.257 44.746 
89.409 45.164 89.409 c 45.398 89.409 45.594 89.343 45.754 89.206 c 
45.918 89.065 46 88.878 46 88.64 c 46 88.296 45.875 87.995 45.625 
87.745 c 45.379 87.483 45.09 87.354 44.75 87.354 c 44.68 87.378 l 
44.586 87.378 l f
56.73 90.741 m 56.73 90.073 56.871 89.483 57.148 88.972 c 57.426 88.464 
57.82 88.069 58.336 87.792 c 58.848 87.515 59.441 87.374 60.113 87.374 
c 60.812 87.374 61.488 87.542 62.145 87.87 c 62.801 88.206 63.363 
88.659 63.836 89.233 c 64.309 89.807 64.625 90.432 64.789 91.097 c 
64.809 91.182 64.867 91.222 64.969 91.222 c 65.172 91.222 l 65.219 
91.222 65.262 91.206 65.297 91.167 c 65.336 91.132 65.355 91.085 65.355 
91.034 c 65.355 91.022 65.348 91.007 65.34 90.987 c 65.145 90.206 
64.766 89.491 64.203 88.847 c 63.648 88.202 62.984 87.694 62.215 87.327 
c 61.449 86.96 60.664 86.776 59.863 86.776 c 58.98 86.776 58.18 86.964 
57.453 87.335 c 56.73 87.714 56.164 88.245 55.754 88.925 c 55.344 
89.608 55.141 90.39 55.141 91.268 c 55.141 92.198 55.352 93.1 55.777 
93.975 c 56.207 94.854 56.789 95.628 57.523 96.307 c 58.258 96.983 
59.074 97.511 59.973 97.886 c 60.867 98.268 61.77 98.46 62.68 98.46 c 
63.254 98.46 63.789 98.339 64.277 98.093 c 64.77 97.85 65.172 97.503 
65.48 97.046 c 66.77 98.413 l 66.801 98.444 66.84 98.46 66.887 98.46 c 
66.98 98.46 l 67.035 98.46 67.078 98.444 67.109 98.405 c 67.141 98.37 
67.156 98.323 67.156 98.265 c 67.156 98.218 l 66.078 93.944 l 66.055 
93.85 66.004 93.804 65.922 93.804 c 65.676 93.804 l 65.555 93.804 
65.496 93.874 65.496 94.015 c 65.531 94.253 65.551 94.499 65.551 94.757 
c 65.551 95.323 65.441 95.843 65.227 96.315 c 65.02 96.784 64.707 
97.159 64.301 97.44 c 63.891 97.722 63.398 97.862 62.82 97.862 c 61.945 
97.862 61.129 97.659 60.375 97.249 c 59.617 96.847 58.969 96.296 58.43 
95.597 c 57.891 94.905 57.469 94.136 57.172 93.284 c 56.879 92.44 56.73 
91.593 56.73 90.741 c f
[ 6.042837 6.042837] 0 d
q 1 0 0 1 0 406.26062 cm
227.977 -344.227 m 190.66 -132.57 l 49.555 -157.449 l S Q
215.223 43.987 m 215.535 43.78 215.949 43.679 216.461 43.679 c 216.965 
43.679 217.41 43.917 217.797 44.397 c 218.18 44.886 218.445 45.409 
218.586 45.968 c 219.672 50.323 l 219.852 51.061 219.941 51.585 219.941 
51.893 c 219.941 52.311 219.832 52.667 219.613 52.968 c 219.398 53.265 
219.09 53.417 218.68 53.417 c 218.16 53.417 217.68 53.253 217.242 
52.932 c 216.809 52.608 216.445 52.202 216.156 51.718 c 215.871 51.237 
215.668 50.749 215.539 50.253 c 215.5 50.136 215.445 50.077 215.375 
50.077 c 215.082 50.077 l 214.969 50.077 214.914 50.159 214.914 50.323 
c 215.066 50.921 215.32 51.499 215.684 52.057 c 216.043 52.624 216.488 
53.089 217.016 53.452 c 217.543 53.811 218.113 53.995 218.727 53.995 c 
219.309 53.995 219.824 53.831 220.273 53.511 c 220.73 53.194 221.051 
52.761 221.242 52.21 c 221.508 52.714 221.848 53.136 222.258 53.475 c 
222.672 53.819 223.133 53.995 223.637 53.995 c 224.211 53.995 224.727 
53.858 225.184 53.593 c 225.641 53.335 225.867 52.944 225.867 52.425 c 
225.867 52.046 225.746 51.722 225.5 51.444 c 225.258 51.179 224.949 
51.042 224.582 51.042 c 224.352 51.042 224.152 51.116 223.98 51.268 c 
223.812 51.417 223.73 51.608 223.73 51.847 c 223.73 52.151 223.836 
52.425 224.051 52.659 c 224.27 52.905 224.531 53.05 224.828 53.097 c 
224.539 53.307 224.125 53.417 223.59 53.417 c 223.094 53.417 222.652 
53.175 222.27 52.694 c 221.891 52.214 221.629 51.69 221.488 51.112 c 
220.402 46.772 l 220.223 46.14 220.133 45.62 220.133 45.202 c 220.133 
44.792 220.242 44.432 220.461 44.128 c 220.684 43.827 220.992 43.679 
221.395 43.679 c 222.133 43.679 222.793 44.011 223.367 44.671 c 223.949 
45.339 224.336 46.061 224.535 46.843 c 224.574 46.952 224.629 47.007 
224.699 47.007 c 224.996 47.007 l 225.043 47.007 225.082 46.983 225.113 
46.936 c 225.145 46.89 225.16 46.835 225.16 46.772 c 225.012 46.175 
224.75 45.589 224.379 45.022 c 224.02 44.456 223.574 43.995 223.047 
43.632 c 222.527 43.276 221.961 43.1 221.348 43.1 c 220.969 43.1 
220.605 43.175 220.25 43.323 c 219.902 43.475 219.609 43.686 219.363 
43.964 c 219.121 44.237 218.945 44.546 218.832 44.882 c 218.582 44.378 
218.242 43.956 217.82 43.608 c 217.402 43.268 216.941 43.1 216.438 43.1 
c 215.871 43.1 215.355 43.229 214.891 43.491 c 214.434 43.749 214.207 
44.143 214.207 44.671 c 214.207 45.046 214.328 45.37 214.574 45.64 c 
214.816 45.905 215.125 46.038 215.492 46.038 c 215.738 46.038 215.938 
45.964 216.094 45.815 c 216.262 45.675 216.344 45.483 216.344 45.249 c 
216.344 44.948 216.234 44.675 216.012 44.421 c 215.801 44.179 215.535 
44.034 215.223 43.987 c f
227.918 39.71 m 227.789 39.753 227.723 39.839 227.723 39.972 c 227.77 
40.175 l 227.816 40.249 227.883 40.292 227.969 40.307 c 228.559 40.307 
228.961 40.335 229.172 40.386 c 229.387 40.44 229.523 40.62 229.582 
40.921 c 231.75 49.624 l 231.781 49.718 231.801 49.807 231.801 49.893 c 
231.801 49.975 231.758 50.03 231.672 50.057 c 231.48 50.1 231.098 50.12 
230.531 50.12 c 230.391 50.155 230.32 50.245 230.32 50.382 c 230.383 
50.585 l 230.426 50.659 230.484 50.702 230.562 50.718 c 236.574 50.718 
l 237.355 50.718 238.051 50.538 238.66 50.175 c 239.27 49.815 239.738 
49.319 240.07 48.686 c 240.402 48.057 240.57 47.354 240.57 46.573 c 
240.57 45.722 240.387 44.886 240.02 44.061 c 239.66 43.245 239.16 
42.507 238.52 41.85 c 237.879 41.194 237.148 40.675 236.324 40.284 c 
235.504 39.901 234.668 39.71 233.812 39.71 c 227.918 39.71 l 230.949 
40.401 m 230.949 40.339 231.113 40.307 231.445 40.307 c 233.547 40.307 
l 234.867 40.307 236.043 40.796 237.07 41.772 c 237.363 42.065 237.633 
42.432 237.883 42.874 c 238.129 43.315 238.336 43.78 238.512 44.265 c 
238.684 44.753 238.816 45.249 238.91 45.753 c 239.008 46.261 239.055 
46.725 239.055 47.14 c 239.055 47.745 238.926 48.276 238.676 48.729 c 
238.426 49.182 238.066 49.53 237.598 49.765 c 237.133 50.003 236.598 
50.12 235.992 50.12 c 234.012 50.12 l 233.777 50.12 233.621 50.108 
233.539 50.089 c 233.453 50.073 233.387 50.026 233.34 49.948 c 233.301 
49.87 233.25 49.722 233.191 49.507 c 231.012 40.804 l 230.969 40.636 
230.949 40.503 230.949 40.401 c f
16.035 242.593 m 16.18 242.276 16.41 242.034 16.734 241.858 c 17.062 
241.686 17.418 241.6 17.793 241.6 c 18.762 241.6 19.594 242.061 20.285 
242.979 c 20.984 243.893 21.469 244.901 21.738 246.003 c 21.926 246.78 
l 21.203 246.073 20.422 245.718 19.59 245.718 c 18.699 245.718 17.992 
245.968 17.465 246.464 c 16.945 246.968 16.684 247.659 16.684 248.538 c 
16.684 248.909 16.73 249.315 16.816 249.757 c 16.902 250.202 17.004 
250.616 17.121 250.995 c 17.25 251.374 17.434 251.897 17.676 252.577 c 
17.93 253.253 18.082 253.667 18.137 253.815 c 18.359 254.405 18.469 
254.897 18.469 255.292 c 18.469 255.788 18.281 256.034 17.914 256.034 c 
17.285 256.034 16.766 255.71 16.355 255.065 c 15.953 254.421 15.645 
253.69 15.422 252.87 c 15.383 252.753 15.328 252.694 15.258 252.694 c 
14.973 252.694 l 14.855 252.694 14.797 252.776 14.797 252.94 c 15.043 
253.893 15.422 254.745 15.941 255.491 c 16.469 256.237 17.141 256.612 
17.961 256.612 c 18.52 256.612 18.984 256.425 19.352 256.046 c 19.73 
255.675 19.918 255.21 19.918 254.651 c 19.918 254.354 19.855 254.046 
19.73 253.733 c 19.668 253.557 19.508 253.136 19.246 252.456 c 18.996 
251.78 18.801 251.218 18.668 250.768 c 18.535 250.323 18.426 249.89 
18.336 249.472 c 18.25 249.054 18.207 248.643 18.207 248.233 c 18.207 
247.682 18.32 247.222 18.551 246.85 c 18.777 246.483 19.141 246.296 
19.637 246.296 c 20.645 246.296 21.52 246.905 22.27 248.128 c 24.156 
255.62 l 24.203 255.843 24.316 256.022 24.5 256.163 c 24.68 256.304 
24.879 256.378 25.102 256.378 c 25.289 256.378 25.441 256.315 25.562 
256.198 c 25.688 256.089 25.75 255.936 25.75 255.737 c 25.75 255.55 l 
23.332 245.909 l 23.109 245.057 22.727 244.265 22.184 243.522 c 21.648 
242.776 20.992 242.175 20.215 241.718 c 19.434 241.253 18.621 241.022 
17.77 241.022 c 17.363 241.022 16.965 241.104 16.578 241.268 c 16.203 
241.429 15.895 241.663 15.66 241.975 c 15.422 242.292 15.305 242.659 
15.305 243.073 c 15.305 243.507 15.418 243.874 15.648 244.171 c 15.875 
244.472 16.199 244.62 16.613 244.62 c 16.852 244.62 17.047 244.554 
17.203 244.421 c 17.371 244.28 17.453 244.089 17.453 243.854 c 17.453 
243.507 17.328 243.21 17.074 242.956 c 16.832 242.698 16.539 242.569 
16.203 242.569 c 16.129 242.593 l 16.035 242.593 l f
26.719 242.331 m 26.586 242.37 26.523 242.456 26.523 242.589 c 26.57 
242.792 l 26.617 242.866 26.684 242.913 26.766 242.929 c 27.359 242.929 
27.762 242.952 27.969 243.007 c 28.184 243.057 28.32 243.237 28.379 
243.542 c 30.551 252.241 l 30.582 252.339 30.598 252.425 30.598 252.511 
c 30.598 252.593 30.555 252.651 30.473 252.675 c 30.277 252.718 29.898 
252.737 29.332 252.737 c 29.188 252.776 29.117 252.862 29.117 252.999 c 
29.18 253.202 l 29.223 253.276 29.285 253.319 29.363 253.335 c 35.375 
253.335 l 36.156 253.335 36.852 253.155 37.457 252.792 c 38.066 252.432 
38.535 251.936 38.867 251.307 c 39.203 250.679 39.371 249.972 39.371 
249.19 c 39.371 248.339 39.188 247.503 38.82 246.679 c 38.457 245.862 
37.957 245.124 37.316 244.468 c 36.676 243.815 35.945 243.292 35.121 
242.905 c 34.305 242.522 33.469 242.331 32.613 242.331 c 26.719 242.331 
l 29.746 243.022 m 29.746 242.96 29.914 242.929 30.242 242.929 c 32.344 
242.929 l 33.668 242.929 34.84 243.413 35.871 244.39 c 36.164 244.682 
36.434 245.05 36.68 245.491 c 36.926 245.932 37.137 246.397 37.309 
246.886 c 37.48 247.374 37.617 247.87 37.711 248.37 c 37.805 248.882 
37.852 249.343 37.852 249.757 c 37.852 250.366 37.727 250.893 37.473 
251.347 c 37.223 251.804 36.863 252.147 36.395 252.386 c 35.93 252.62 
35.395 252.737 34.793 252.737 c 32.809 252.737 l 32.578 252.737 32.422 
252.729 32.336 252.706 c 32.254 252.69 32.188 252.643 32.141 252.565 c 
32.098 252.487 32.047 252.339 31.992 252.124 c 29.812 243.425 l 29.77 
243.257 29.746 243.12 29.746 243.022 c f
[] 0.0 d
q 1 0 0 1 0 406.26062 cm
402.648 -167.938 m 383.121 -57.188 278.664 15.957 167.914 -3.57 c 
57.164 -23.098 -15.98 -127.559 3.547 -238.309 c 23.074 -349.059 127.535 
-422.199 238.285 -402.672 c 349.035 -383.145 422.176 -278.688 402.648 
-167.938 c h
402.648 -167.938 m S Q
Q Q
showpage
%%Trailer
count op_count sub {pop} repeat
countdictstack dict_count sub {end} repeat
cairo_eps_state restore
%%EOF
